<svg width="21" height="20" viewBox="0 0 21 20" fill="none" xmlns="http://www.w3.org/2000/svg">
<g clip-path="url(#clip0)">
<path d="M14.2363 0H6.73633C3.28508 0 0.486328 2.79875 0.486328 6.25V13.75C0.486328 17.2013 3.28508 20 6.73633 20H14.2363C17.6876 20 20.4863 17.2013 20.4863 13.75V6.25C20.4863 2.79875 17.6876 0 14.2363 0ZM18.6113 13.75C18.6113 16.1625 16.6488 18.125 14.2363 18.125H6.73633C4.32383 18.125 2.36133 16.1625 2.36133 13.75V6.25C2.36133 3.8375 4.32383 1.875 6.73633 1.875H14.2363C16.6488 1.875 18.6113 3.8375 18.6113 6.25V13.75Z" fill="#A3A3A3"/>
<path d="M10.4863 5C7.72508 5 5.48633 7.23875 5.48633 10C5.48633 12.7613 7.72508 15 10.4863 15C13.2476 15 15.4863 12.7613 15.4863 10C15.4863 7.23875 13.2476 5 10.4863 5ZM10.4863 13.125C8.76383 13.125 7.36133 11.7225 7.36133 10C7.36133 8.27625 8.76383 6.875 10.4863 6.875C12.2088 6.875 13.6113 8.27625 13.6113 10C13.6113 11.7225 12.2088 13.125 10.4863 13.125Z" fill="#A3A3A3"/>
<path d="M15.8616 5.29099C16.2295 5.29099 16.5278 4.9927 16.5278 4.62475C16.5278 4.25679 16.2295 3.9585 15.8616 3.9585C15.4936 3.9585 15.1953 4.25679 15.1953 4.62475C15.1953 4.9927 15.4936 5.29099 15.8616 5.29099Z" fill="#A3A3A3"/>
</g>
<defs>
<clipPath id="clip0">
<rect width="20" height="20" fill="white" transform="translate(0.486328)"/>
</clipPath>
</defs>
</svg>
