<svg width="86" height="73" viewBox="0 0 86 73" fill="none" xmlns="http://www.w3.org/2000/svg">
<path d="M80.5171 0.877686H5.85982C2.96695 0.877686 0.613281 3.23135 0.613281 6.12422V56.7842C0.613281 59.6771 2.96695 62.0308 5.85982 62.0308H33.5919L31.5494 70.2014H29.8571C29.1678 70.2014 28.6098 70.76 28.6098 71.4487C28.6098 72.1379 29.1678 72.696 29.8571 72.696H56.5198C57.2084 72.696 57.7671 72.1379 57.7671 71.4487C57.7671 70.76 57.2084 70.2014 56.5198 70.2014H54.8275L52.7844 62.0308H80.5164C83.4099 62.0308 85.763 59.6771 85.763 56.7842V6.12422C85.7636 3.23135 83.4099 0.877686 80.5171 0.877686ZM83.269 51.537H46.1892C46.2645 51.4669 46.3399 51.3974 46.4133 51.324L49.7265 48.0108C51.0017 46.7355 52.6973 46.0332 54.5007 46.0332H83.269V51.537ZM5.85982 3.37232H80.5164C82.034 3.37232 83.269 4.60665 83.269 6.12422V22.2081H81.9443C80.4976 22.2081 79.1366 21.6443 78.1134 20.6211L74.504 17.0123C73.2612 15.7689 71.6091 15.0848 69.8512 15.0848C68.0939 15.0848 66.4412 15.7689 65.1984 17.0123L56.5198 25.6909L52.7831 21.9541C49.6979 18.869 44.6774 18.869 41.5923 21.9541L31.1901 32.3569L29.5673 30.7341C28.5766 29.7434 27.2585 29.197 25.8572 29.197C24.4559 29.197 23.1378 29.7434 22.1471 30.7341L16.653 36.2281C15.3778 37.5034 13.6822 38.2057 11.8788 38.2057H3.10792V6.12422C3.10792 4.60665 4.34225 3.37232 5.85982 3.37232ZM3.10792 40.7003H11.8788C14.3487 40.7003 16.6706 39.7388 18.4168 37.9919L23.9115 32.4979C24.4312 31.9782 25.1225 31.6917 25.8572 31.6917C26.5926 31.6917 27.2838 31.9782 27.8035 32.4979L29.4264 34.1207L22.3764 41.1706C20.8491 42.698 18.8189 43.5386 16.6595 43.5386H3.10792V40.7003ZM52.2562 70.2014H34.1207L36.1632 62.0308H50.2137L52.2562 70.2014ZM80.5171 59.5361H5.85982C4.34225 59.5361 3.10792 58.3018 3.10792 56.7842V54.0317H5.85982C6.54844 54.0317 7.10714 53.4736 7.10714 52.7844C7.10714 52.0957 6.54844 51.537 5.85982 51.537H3.10792V46.0332H16.6595C19.4855 46.0332 22.1419 44.9327 24.1402 42.9344L43.3567 23.7179C44.3799 22.6947 45.7403 22.1308 47.1877 22.1308C48.6351 22.1308 49.9961 22.6947 51.0193 23.7179L56.9726 29.6719C57.4599 30.1592 58.2498 30.1592 58.7364 29.6719C59.2236 29.1847 59.2236 28.3947 58.7364 27.9075L58.2836 27.4547L66.9622 18.7761C68.5558 17.1831 71.1472 17.1831 72.7402 18.7761L76.3489 22.3848C77.8438 23.8797 79.831 24.7028 81.9443 24.7028H83.269V35.5395H69.7174C67.5579 35.5395 65.5278 34.6982 64.0005 33.1716L62.733 31.9041C62.2458 31.4169 61.4565 31.4169 60.9692 31.9041C60.482 32.3913 60.482 33.1807 60.9692 33.6679L62.2367 34.9353C64.235 36.9337 66.8914 38.0342 69.7174 38.0342H83.269V43.5386H54.5007C52.0308 43.5386 49.7089 44.5007 47.9627 46.247L44.6495 49.5602C43.3742 50.8354 41.6787 51.5377 39.8753 51.5377H11.1921C10.5035 51.5377 9.94479 52.0964 9.94479 52.785C9.94479 53.4743 10.5035 54.0323 11.1921 54.0323H83.269V56.7842C83.269 58.3018 82.0346 59.5361 80.5171 59.5361Z" fill="#55D251"/>
</svg>
