<svg width="40" height="95" viewBox="0 0 40 95" fill="none" xmlns="http://www.w3.org/2000/svg">
<rect x="19.002" y="2.73474" width="1.99528" height="18.3599" fill="#E8E8E8"/>
<path d="M8.2168 81.2162L20.0005 93L31.7843 81.2162" stroke="#E8E8E8" stroke-width="2.5"/>
<rect x="38.25" y="68.1825" width="36.5" height="66.4622" rx="18.25" transform="rotate(-180 38.25 68.1825)" stroke="#E8E8E8" stroke-width="2.5"/>
</svg>
