<svg width="69" height="70" viewBox="0 0 69 70" fill="none" xmlns="http://www.w3.org/2000/svg">
<rect y="0.652344" width="68.9996" height="68.9996" fill="#F70000"/>
<g clip-path="url(#clip0)">
<path fill-rule="evenodd" clip-rule="evenodd" d="M34.2342 11.1152C24.3266 11.1162 17.4614 11.1491 13.9375 14.5904C10.4965 18.1135 10.4635 25.301 10.4635 34.8864C21.1069 34.5652 25.9741 34.2987 29.856 30.508C33.6464 26.6261 33.913 21.7591 34.2342 11.1152ZM13.9369 55.7133C10.4959 52.1902 10.4629 45.0027 10.4629 35.4174C21.1063 35.7386 25.9735 36.0051 29.8554 39.7957C33.6458 43.6776 33.9124 48.5447 34.2336 59.1876C24.326 59.1876 17.4608 59.1556 13.9369 55.7133ZM34.7649 59.1876C35.0861 48.5447 35.3527 43.6776 39.1432 39.7957C43.025 36.0051 47.8922 35.7386 58.5356 35.4174C58.5346 45.0027 58.5017 52.1902 55.0607 55.7133C51.5367 59.1556 44.6726 59.1876 34.7649 59.1876ZM34.7649 11.1152C35.0861 21.7591 35.3527 26.6261 39.1432 30.508C43.025 34.2987 47.8922 34.5652 58.5356 34.8864C58.5346 25.301 58.5017 18.1135 55.0607 14.5904C51.5367 11.1491 44.6726 11.1162 34.7649 11.1152Z" fill="white"/>
</g>
<defs>
<clipPath id="clip0">
<rect width="48.0729" height="48.0729" fill="white" transform="translate(10.4629 11.1152)"/>
</clipPath>
</defs>
</svg>
