<svg width="86" height="86" viewBox="0 0 86 86" fill="none" xmlns="http://www.w3.org/2000/svg">
<g clip-path="url(#clip0)">
<path d="M82.5229 8.33134H79.771V6.91187C79.771 4.75375 78.015 2.99841 75.8569 2.99841C73.6994 2.99841 71.9435 4.7544 71.9435 6.91187V8.33134H50.9502L51.748 4.50039C51.8246 4.13269 51.7317 3.75005 51.4946 3.45901C51.2581 3.16732 50.9028 2.99841 50.5273 2.99841H29.1969C28.5076 2.99841 27.9495 3.55711 27.9495 4.24573V8.33069H13.113V6.91187C13.113 4.75375 11.357 2.99841 9.19951 2.99841C7.04139 2.99841 5.2854 4.75375 5.2854 6.91187V8.33069H2.53351C1.11079 8.33134 -0.046875 9.48836 -0.046875 10.9117V18.9101C-0.046875 19.8807 0.49233 20.7272 1.28619 21.1677V78.9022C1.28619 81.0603 3.04218 82.8157 5.19965 82.8157H79.8561C82.0142 82.8157 83.7702 81.0603 83.7702 78.9022V21.1677C84.5641 20.7272 85.1033 19.8807 85.1033 18.9101V10.9117C85.1033 9.48836 83.9456 8.33134 82.5229 8.33134ZM74.4381 6.91187C74.4381 6.1297 75.0747 5.49305 75.8569 5.49305C76.6391 5.49305 77.2757 6.1297 77.2757 6.91187V12.2442C77.2757 13.027 76.6391 13.6636 75.8569 13.6636C75.0747 13.6636 74.4381 13.027 74.4381 12.2442V6.91187ZM30.4442 5.49305H48.9928L43.7508 30.6551C43.6748 31.0228 43.7677 31.4048 44.0042 31.6964C44.2413 31.9875 44.5967 32.157 44.9722 32.157L58.9077 32.1564L39.7913 61.8926L44.8046 37.8297C44.8812 37.462 44.7883 37.0794 44.5512 36.7884C44.3141 36.4973 43.9587 36.3278 43.5832 36.3278L30.4442 36.3271V5.49305ZM7.78004 6.91187C7.78004 6.1297 8.41669 5.49305 9.19951 5.49305C9.98168 5.49305 10.6183 6.1297 10.6183 6.91187V12.2442C10.6183 13.027 9.98168 13.6636 9.19951 13.6636C8.41669 13.6636 7.78004 13.027 7.78004 12.2442V6.91187ZM2.44776 10.9117C2.44776 10.8643 2.48609 10.826 2.53351 10.826H5.2854V12.2448C5.2854 14.4029 7.04139 16.1583 9.19951 16.1583C11.357 16.1583 13.113 14.4023 13.113 12.2448V10.826H27.9495V18.9966H2.53351C2.48609 18.9966 2.44776 18.9576 2.44776 18.9101V10.9117ZM79.8568 80.321H5.19965C4.41748 80.321 3.78083 79.685 3.78083 78.9022V77.2157C4.22129 77.3879 4.69943 77.4834 5.19965 77.4834H7.86644C8.55571 77.4834 9.11376 76.9247 9.11376 76.2361C9.11376 75.5474 8.55571 74.9887 7.86644 74.9887H5.19965C4.41748 74.9887 3.78083 74.3521 3.78083 73.5699V21.4912H27.9495V37.5744C27.9495 38.2637 28.5076 38.8217 29.1969 38.8217L42.0494 38.8224L35.9746 67.983C35.8518 68.5716 36.1669 69.164 36.7236 69.3914C36.877 69.4544 37.0374 69.485 37.1953 69.485C37.6091 69.485 38.0093 69.2777 38.2451 68.912L62.2417 31.5834C62.4885 31.1995 62.5061 30.7116 62.2871 30.3108C62.0689 29.9106 61.6485 29.6618 61.1925 29.6618H46.5066L48.2087 21.4905H74.5245C75.2131 21.4905 75.7718 20.9325 75.7718 20.2432C75.7718 19.5546 75.2131 18.9959 74.5245 18.9959H48.7284L50.4305 10.8253H71.9435V12.2442C71.9435 14.4023 73.6994 16.1583 75.8569 16.1583C78.015 16.1583 79.7704 14.4023 79.7704 12.2442V10.8253H82.5229C82.5703 10.8253 82.6087 10.8637 82.6087 10.9111V18.9101C82.6087 18.9576 82.5703 18.9959 82.5229 18.9959H79.8568C79.1681 18.9959 78.6095 19.5546 78.6095 20.2432C78.6095 20.9325 79.1681 21.4905 79.8568 21.4905H81.2756V73.5699C81.2756 74.3521 80.6389 74.9887 79.8561 74.9887H13.1987C12.5101 74.9887 11.9514 75.5468 11.9514 76.2361C11.9514 76.9247 12.5101 77.4834 13.1987 77.4834H79.8568C80.357 77.4834 80.8351 77.3879 81.2756 77.2157V78.9022C81.2756 79.685 80.6389 80.321 79.8568 80.321Z" fill="#55D251"/>
</g>
<defs>
<clipPath id="clip0">
<rect width="85.15" height="85.15" fill="white" transform="translate(0.119141 0.171265)"/>
</clipPath>
</defs>
</svg>
