<svg width="86" height="86" viewBox="0 0 86 86" fill="none" xmlns="http://www.w3.org/2000/svg">
<g clip-path="url(#clip0)">
<path d="M80.3079 22.9821H72.2231V21.5633C72.2231 19.4052 70.4671 17.6492 68.3097 17.6492H66.8902V10.8981C66.8902 10.2095 66.3321 9.65076 65.6429 9.65076H20.3159C19.6273 9.65076 19.0686 10.2095 19.0686 10.8981V17.6498H17.6498C15.4916 17.6498 13.7356 19.4052 13.7356 21.5633V22.9821H5.65082C2.75796 22.9821 0.404297 25.3358 0.404297 28.2293V57.5581C0.404297 60.4516 2.75796 62.8053 5.65082 62.8053H19.0686V74.8893C19.0686 75.5779 19.6266 76.1367 20.3159 76.1367H65.6429C66.3315 76.1367 66.8902 75.5779 66.8902 74.8893V62.8053H80.3073C83.2008 62.8053 85.5545 60.4516 85.5545 57.5581V28.2293C85.5545 25.3358 83.2008 22.9821 80.3079 22.9821ZM68.3097 20.1438C69.0918 20.1438 69.7285 20.7805 69.7285 21.5633V22.9821H66.8902V20.1438H68.3097ZM64.3956 12.1454V22.9821H21.5632V12.1454H64.3956ZM16.2303 21.5633C16.2303 20.7805 16.8669 20.1445 17.6491 20.1445H19.0686V22.9821H16.2303V21.5633ZM21.5632 73.642V58.8912C21.5632 58.2026 21.0045 57.6439 20.3159 57.6439C19.6273 57.6439 19.0686 58.2026 19.0686 58.8912V60.3107H5.65082C4.13325 60.3107 2.89893 59.0757 2.89893 57.5581V52.1401H19.0686V53.5589C19.0686 54.2475 19.6273 54.8062 20.3159 54.8062C21.0045 54.8062 21.5632 54.2475 21.5632 53.5589V52.1401H25.7346V68.2233C25.7346 68.9126 26.2926 69.4706 26.9819 69.4706H58.9775C59.6661 69.4706 60.2248 68.9126 60.2248 68.2233V52.1401H64.3956V73.642H21.5632ZM68.3954 49.6455H17.5634V48.2266C17.5634 47.4438 18.2 46.8072 18.9828 46.8072H66.9759C67.7588 46.8072 68.3948 47.4438 68.3948 48.2266V49.6455H68.3954ZM36.2276 66.9767V52.1401H41.7321V66.9767H36.2276ZM28.2292 52.1401H33.733V66.9767H28.2292V52.1401ZM44.2267 52.1401H49.7311V66.9767H44.2267V52.1401ZM52.2258 52.1401H57.7296V66.9767H52.2258V52.1401ZM80.3079 60.3107H66.8902V52.1401H76.3087C76.998 52.1401 77.556 51.5814 77.556 50.8928C77.556 50.2035 76.998 49.6455 76.3087 49.6455H70.89V48.2266C70.89 46.0685 69.1341 44.3125 66.9766 44.3125H18.9828C16.8247 44.3125 15.0687 46.0685 15.0687 48.2266V49.6455H2.89893V28.2293C2.89893 26.7117 4.13325 25.4767 5.65082 25.4767H80.3073C81.8249 25.4767 83.0598 26.7117 83.0598 28.2293V49.6455H81.6404C80.9517 49.6455 80.393 50.2035 80.393 50.8928C80.393 51.5814 80.9517 52.1401 81.6404 52.1401H83.0598V57.5588C83.0598 59.0757 81.8255 60.3107 80.3079 60.3107Z" fill="#1B98F7"/>
<path d="M50.9779 36.3142H34.9797C34.2911 36.3142 33.7324 36.8723 33.7324 37.5615C33.7324 38.2501 34.2911 38.8088 34.9797 38.8088H50.9779C51.6665 38.8088 52.2252 38.2501 52.2252 37.5615C52.2252 36.8723 51.6665 36.3142 50.9779 36.3142Z" fill="#1B98F7"/>
<path d="M56.3248 36.3142H56.3111C55.6225 36.3142 55.0703 36.8723 55.0703 37.5615C55.0703 38.2501 55.6355 38.8088 56.3248 38.8088C57.0134 38.8088 57.5721 38.2501 57.5721 37.5615C57.5721 36.8723 57.0134 36.3142 56.3248 36.3142Z" fill="#1B98F7"/>
<path d="M29.6601 36.3142H29.6471C28.9578 36.3142 28.4062 36.8723 28.4062 37.5615C28.4062 38.2501 28.9714 38.8088 29.6601 38.8088C30.3493 38.8088 30.9074 38.2501 30.9074 37.5615C30.9074 36.8723 30.3493 36.3142 29.6601 36.3142Z" fill="#1B98F7"/>
</g>
<defs>
<clipPath id="clip0">
<rect width="85.15" height="85.15" fill="white" transform="translate(0.570312 0.171265)"/>
</clipPath>
</defs>
</svg>
